[
    {
        "tracks": {
            "href": "https://api.spotify.com/v1/search?query=Sicko+Mode&type=track&offset=0&limit=1",
            "items": [
                {
                    "album": {
                        "album_type": "album",
                        "artists": [
                            {
                                "external_urls": {
                                    "spotify": "https://open.spotify.com/artist/0Y5tJX1MQlPlqiwlOH1tJY"
                                },
                                "href": "https://api.spotify.com/v1/artists/0Y5tJX1MQlPlqiwlOH1tJY",
                                "id": "0Y5tJX1MQlPlqiwlOH1tJY",
                                "name": "Travis Scott",
                                "type": "artist",
                                "uri": "spotify:artist:0Y5tJX1MQlPlqiwlOH1tJY"
                            }
                        ],
                        "available_markets": [
                            "AD",
                            "AE",
                            "AR",
                            "AT",
                            "AU",
                            "BE",
                            "BG",
                            "BH",
                            "BO",
                            "BR",
                            "CA",
                            "CH",
                            "CL",
                            "CO",
                            "CR",
                            "CY",
                            "CZ",
                            "DE",
                            "DK",
                            "DO",
                            "DZ",
                            "EC",
                            "EE",
                            "EG",
                            "ES",
                            "FI",
                            "FR",
                            "GB",
                            "GR",
                            "GT",
                            "HK",
                            "HN",
                            "HU",
                            "ID",
                            "IE",
                            "IL",
                            "IN",
                            "IS",
                            "IT",
                            "JO",
                            "JP",
                            "KW",
                            "LB",
                            "LI",
                            "LT",
                            "LU",
                            "LV",
                            "MA",
                            "MC",
                            "MT",
                            "MX",
                            "MY",
                            "NI",
                            "NL",
                            "NO",
                            "NZ",
                            "OM",
                            "PA",
                            "PE",
                            "PH",
                            "PL",
                            "PS",
                            "PT",
                            "PY",
                            "QA",
                            "RO",
                            "SA",
                            "SE",
                            "SG",
                            "SK",
                            "SV",
                            "TH",
                            "TN",
                            "TR",
                            "TW",
                            "US",
                            "UY",
                            "VN",
                            "ZA"
                        ],
                        "external_urls": {
                            "spotify": "https://open.spotify.com/album/41GuZcammIkupMPKH2OJ6I"
                        },
                        "href": "https://api.spotify.com/v1/albums/41GuZcammIkupMPKH2OJ6I",
                        "id": "41GuZcammIkupMPKH2OJ6I",
                        "images": [
                            {
                                "height": 640,
                                "url": "https://i.scdn.co/image/ab67616d0000b273072e9faef2ef7b6db63834a3",
                                "width": 640
                            },
                            {
                                "height": 300,
                                "url": "https://i.scdn.co/image/ab67616d00001e02072e9faef2ef7b6db63834a3",
                                "width": 300
                            },
                            {
                                "height": 64,
                                "url": "https://i.scdn.co/image/ab67616d00004851072e9faef2ef7b6db63834a3",
                                "width": 64
                            }
                        ],
                        "name": "ASTROWORLD",
                        "release_date": "2018-08-03",
                        "release_date_precision": "day",
                        "total_tracks": 17,
                        "type": "album",
                        "uri": "spotify:album:41GuZcammIkupMPKH2OJ6I"
                    },
                    "artists": [
                        {
                            "external_urls": {
                                "spotify": "https://open.spotify.com/artist/0Y5tJX1MQlPlqiwlOH1tJY"
                            },
                            "href": "https://api.spotify.com/v1/artists/0Y5tJX1MQlPlqiwlOH1tJY",
                            "id": "0Y5tJX1MQlPlqiwlOH1tJY",
                            "name": "Travis Scott",
                            "type": "artist",
                            "uri": "spotify:artist:0Y5tJX1MQlPlqiwlOH1tJY"
                        }
                    ],
                    "available_markets": [
                        "AD",
                        "AE",
                        "AR",
                        "AT",
                        "AU",
                        "BE",
                        "BG",
                        "BH",
                        "BO",
                        "BR",
                        "CA",
                        "CH",
                        "CL",
                        "CO",
                        "CR",
                        "CY",
                        "CZ",
                        "DE",
                        "DK",
                        "DO",
                        "DZ",
                        "EC",
                        "EE",
                        "EG",
                        "ES",
                        "FI",
                        "FR",
                        "GB",
                        "GR",
                        "GT",
                        "HK",
                        "HN",
                        "HU",
                        "ID",
                        "IE",
                        "IL",
                        "IN",
                        "IS",
                        "IT",
                        "JO",
                        "JP",
                        "KW",
                        "LB",
                        "LI",
                        "LT",
                        "LU",
                        "LV",
                        "MA",
                        "MC",
                        "MT",
                        "MX",
                        "MY",
                        "NI",
                        "NL",
                        "NO",
                        "NZ",
                        "OM",
                        "PA",
                        "PE",
                        "PH",
                        "PL",
                        "PS",
                        "PT",
                        "PY",
                        "QA",
                        "RO",
                        "SA",
                        "SE",
                        "SG",
                        "SK",
                        "SV",
                        "TH",
                        "TN",
                        "TR",
                        "TW",
                        "US",
                        "UY",
                        "VN",
                        "ZA"
                    ],
                    "disc_number": 1,
                    "duration_ms": 312820,
                    "explicit": true,
                    "external_ids": {
                        "isrc": "USSM11806660"
                    },
                    "external_urls": {
                        "spotify": "https://open.spotify.com/track/2xLMifQCjDGFmkHkpNLD9h"
                    },
                    "href": "https://api.spotify.com/v1/tracks/2xLMifQCjDGFmkHkpNLD9h",
                    "id": "2xLMifQCjDGFmkHkpNLD9h",
                    "is_local": false,
                    "name": "SICKO MODE",
                    "popularity": 86,
                    "preview_url": "https://p.scdn.co/mp3-preview/1c3c01c64477b356e28a652b6447f4ef96689a71?cid=1d9037116098431eaf72e340c49fcad5",
                    "track_number": 3,
                    "type": "track",
                    "uri": "spotify:track:2xLMifQCjDGFmkHkpNLD9h"
                }
            ],
            "limit": 1,
            "next": "https://api.spotify.com/v1/search?query=Sicko+Mode&type=track&offset=1&limit=1",
            "offset": 0,
            "previous": null,
            "total": 180
        }
    },
    {
        "tracks": {
            "href": "https://api.spotify.com/v1/search?query=ButterFly+Effect&type=track&offset=0&limit=1",
            "items": [
                {
                    "album": {
                        "album_type": "album",
                        "artists": [
                            {
                                "external_urls": {
                                    "spotify": "https://open.spotify.com/artist/0Y5tJX1MQlPlqiwlOH1tJY"
                                },
                                "href": "https://api.spotify.com/v1/artists/0Y5tJX1MQlPlqiwlOH1tJY",
                                "id": "0Y5tJX1MQlPlqiwlOH1tJY",
                                "name": "Travis Scott",
                                "type": "artist",
                                "uri": "spotify:artist:0Y5tJX1MQlPlqiwlOH1tJY"
                            }
                        ],
                        "available_markets": [
                            "AD",
                            "AE",
                            "AR",
                            "AT",
                            "AU",
                            "BE",
                            "BG",
                            "BH",
                            "BO",
                            "BR",
                            "CA",
                            "CH",
                            "CL",
                            "CO",
                            "CR",
                            "CY",
                            "CZ",
                            "DE",
                            "DK",
                            "DO",
                            "DZ",
                            "EC",
                            "EE",
                            "EG",
                            "ES",
                            "FI",
                            "FR",
                            "GB",
                            "GR",
                            "GT",
                            "HK",
                            "HN",
                            "HU",
                            "ID",
                            "IE",
                            "IL",
                            "IN",
                            "IS",
                            "IT",
                            "JO",
                            "JP",
                            "KW",
                            "LB",
                            "LI",
                            "LT",
                            "LU",
                            "LV",
                            "MA",
                            "MC",
                            "MT",
                            "MX",
                            "MY",
                            "NI",
                            "NL",
                            "NO",
                            "NZ",
                            "OM",
                            "PA",
                            "PE",
                            "PH",
                            "PL",
                            "PS",
                            "PT",
                            "PY",
                            "QA",
                            "RO",
                            "SA",
                            "SE",
                            "SG",
                            "SK",
                            "SV",
                            "TH",
                            "TN",
                            "TR",
                            "TW",
                            "US",
                            "UY",
                            "VN",
                            "ZA"
                        ],
                        "external_urls": {
                            "spotify": "https://open.spotify.com/album/41GuZcammIkupMPKH2OJ6I"
                        },
                        "href": "https://api.spotify.com/v1/albums/41GuZcammIkupMPKH2OJ6I",
                        "id": "41GuZcammIkupMPKH2OJ6I",
                        "images": [
                            {
                                "height": 640,
                                "url": "https://i.scdn.co/image/ab67616d0000b273072e9faef2ef7b6db63834a3",
                                "width": 640
                            },
                            {
                                "height": 300,
                                "url": "https://i.scdn.co/image/ab67616d00001e02072e9faef2ef7b6db63834a3",
                                "width": 300
                            },
                            {
                                "height": 64,
                                "url": "https://i.scdn.co/image/ab67616d00004851072e9faef2ef7b6db63834a3",
                                "width": 64
                            }
                        ],
                        "name": "ASTROWORLD",
                        "release_date": "2018-08-03",
                        "release_date_precision": "day",
                        "total_tracks": 17,
                        "type": "album",
                        "uri": "spotify:album:41GuZcammIkupMPKH2OJ6I"
                    },
                    "artists": [
                        {
                            "external_urls": {
                                "spotify": "https://open.spotify.com/artist/0Y5tJX1MQlPlqiwlOH1tJY"
                            },
                            "href": "https://api.spotify.com/v1/artists/0Y5tJX1MQlPlqiwlOH1tJY",
                            "id": "0Y5tJX1MQlPlqiwlOH1tJY",
                            "name": "Travis Scott",
                            "type": "artist",
                            "uri": "spotify:artist:0Y5tJX1MQlPlqiwlOH1tJY"
                        }
                    ],
                    "available_markets": [
                        "AD",
                        "AE",
                        "AR",
                        "AT",
                        "AU",
                        "BE",
                        "BG",
                        "BH",
                        "BO",
                        "BR",
                        "CA",
                        "CH",
                        "CL",
                        "CO",
                        "CR",
                        "CY",
                        "CZ",
                        "DE",
                        "DK",
                        "DO",
                        "DZ",
                        "EC",
                        "EE",
                        "EG",
                        "ES",
                        "FI",
                        "FR",
                        "GB",
                        "GR",
                        "GT",
                        "HK",
                        "HN",
                        "HU",
                        "ID",
                        "IE",
                        "IL",
                        "IN",
                        "IS",
                        "IT",
                        "JO",
                        "JP",
                        "KW",
                        "LB",
                        "LI",
                        "LT",
                        "LU",
                        "LV",
                        "MA",
                        "MC",
                        "MT",
                        "MX",
                        "MY",
                        "NI",
                        "NL",
                        "NO",
                        "NZ",
                        "OM",
                        "PA",
                        "PE",
                        "PH",
                        "PL",
                        "PS",
                        "PT",
                        "PY",
                        "QA",
                        "RO",
                        "SA",
                        "SE",
                        "SG",
                        "SK",
                        "SV",
                        "TH",
                        "TN",
                        "TR",
                        "TW",
                        "US",
                        "UY",
                        "VN",
                        "ZA"
                    ],
                    "disc_number": 1,
                    "duration_ms": 190557,
                    "explicit": false,
                    "external_ids": {
                        "isrc": "USSM11704799"
                    },
                    "external_urls": {
                        "spotify": "https://open.spotify.com/track/2cYqizR4lgvp4Qu6IQ3qGN"
                    },
                    "href": "https://api.spotify.com/v1/tracks/2cYqizR4lgvp4Qu6IQ3qGN",
                    "id": "2cYqizR4lgvp4Qu6IQ3qGN",
                    "is_local": false,
                    "name": "BUTTERFLY EFFECT",
                    "popularity": 81,
                    "preview_url": "https://p.scdn.co/mp3-preview/ca4f131887eae894020e48ea809af1186c95f542?cid=1d9037116098431eaf72e340c49fcad5",
                    "track_number": 15,
                    "type": "track",
                    "uri": "spotify:track:2cYqizR4lgvp4Qu6IQ3qGN"
                }
            ],
            "limit": 1,
            "next": "https://api.spotify.com/v1/search?query=ButterFly+Effect&type=track&offset=1&limit=1",
            "offset": 0,
            "previous": null,
            "total": 2916
        }
    },
    {
        "tracks": {
            "href": "https://api.spotify.com/v1/search?query=God%27s+Plan&type=track&offset=0&limit=1",
            "items": [
                {
                    "album": {
                        "album_type": "album",
                        "artists": [
                            {
                                "external_urls": {
                                    "spotify": "https://open.spotify.com/artist/3TVXtAsR1Inumwj472S9r4"
                                },
                                "href": "https://api.spotify.com/v1/artists/3TVXtAsR1Inumwj472S9r4",
                                "id": "3TVXtAsR1Inumwj472S9r4",
                                "name": "Drake",
                                "type": "artist",
                                "uri": "spotify:artist:3TVXtAsR1Inumwj472S9r4"
                            }
                        ],
                        "available_markets": [
                            "AD",
                            "AE",
                            "AR",
                            "AT",
                            "AU",
                            "BE",
                            "BG",
                            "BH",
                            "BO",
                            "BR",
                            "CA",
                            "CH",
                            "CL",
                            "CO",
                            "CR",
                            "CY",
                            "CZ",
                            "DE",
                            "DK",
                            "DO",
                            "DZ",
                            "EC",
                            "EE",
                            "EG",
                            "ES",
                            "FI",
                            "FR",
                            "GB",
                            "GR",
                            "GT",
                            "HK",
                            "HN",
                            "HU",
                            "ID",
                            "IE",
                            "IL",
                            "IN",
                            "IS",
                            "IT",
                            "JO",
                            "JP",
                            "KW",
                            "LB",
                            "LI",
                            "LT",
                            "LU",
                            "LV",
                            "MA",
                            "MC",
                            "MT",
                            "MX",
                            "MY",
                            "NI",
                            "NL",
                            "NO",
                            "NZ",
                            "OM",
                            "PA",
                            "PE",
                            "PH",
                            "PL",
                            "PS",
                            "PT",
                            "PY",
                            "QA",
                            "RO",
                            "SA",
                            "SE",
                            "SG",
                            "SK",
                            "SV",
                            "TH",
                            "TN",
                            "TR",
                            "TW",
                            "US",
                            "UY",
                            "VN",
                            "ZA"
                        ],
                        "external_urls": {
                            "spotify": "https://open.spotify.com/album/1ATL5GLyefJaxhQzSPVrLX"
                        },
                        "href": "https://api.spotify.com/v1/albums/1ATL5GLyefJaxhQzSPVrLX",
                        "id": "1ATL5GLyefJaxhQzSPVrLX",
                        "images": [
                            {
                                "height": 640,
                                "url": "https://i.scdn.co/image/ab67616d0000b27323ddce858fdfad46782143e8",
                                "width": 640
                            },
                            {
                                "height": 300,
                                "url": "https://i.scdn.co/image/ab67616d00001e0223ddce858fdfad46782143e8",
                                "width": 300
                            },
                            {
                                "height": 64,
                                "url": "https://i.scdn.co/image/ab67616d0000485123ddce858fdfad46782143e8",
                                "width": 64
                            }
                        ],
                        "name": "Scorpion",
                        "release_date": "2018-06-29",
                        "release_date_precision": "day",
                        "total_tracks": 25,
                        "type": "album",
                        "uri": "spotify:album:1ATL5GLyefJaxhQzSPVrLX"
                    },
                    "artists": [
                        {
                            "external_urls": {
                                "spotify": "https://open.spotify.com/artist/3TVXtAsR1Inumwj472S9r4"
                            },
                            "href": "https://api.spotify.com/v1/artists/3TVXtAsR1Inumwj472S9r4",
                            "id": "3TVXtAsR1Inumwj472S9r4",
                            "name": "Drake",
                            "type": "artist",
                            "uri": "spotify:artist:3TVXtAsR1Inumwj472S9r4"
                        }
                    ],
                    "available_markets": [
                        "AD",
                        "AE",
                        "AR",
                        "AT",
                        "AU",
                        "BE",
                        "BG",
                        "BH",
                        "BO",
                        "BR",
                        "CA",
                        "CH",
                        "CL",
                        "CO",
                        "CR",
                        "CY",
                        "CZ",
                        "DE",
                        "DK",
                        "DO",
                        "DZ",
                        "EC",
                        "EE",
                        "EG",
                        "ES",
                        "FI",
                        "FR",
                        "GB",
                        "GR",
                        "GT",
                        "HK",
                        "HN",
                        "HU",
                        "ID",
                        "IE",
                        "IL",
                        "IN",
                        "IS",
                        "IT",
                        "JO",
                        "JP",
                        "KW",
                        "LB",
                        "LI",
                        "LT",
                        "LU",
                        "LV",
                        "MA",
                        "MC",
                        "MT",
                        "MX",
                        "MY",
                        "NI",
                        "NL",
                        "NO",
                        "NZ",
                        "OM",
                        "PA",
                        "PE",
                        "PH",
                        "PL",
                        "PS",
                        "PT",
                        "PY",
                        "QA",
                        "RO",
                        "SA",
                        "SE",
                        "SG",
                        "SK",
                        "SV",
                        "TH",
                        "TN",
                        "TR",
                        "TW",
                        "US",
                        "UY",
                        "VN",
                        "ZA"
                    ],
                    "disc_number": 1,
                    "duration_ms": 198973,
                    "explicit": true,
                    "external_ids": {
                        "isrc": "USCM51800004"
                    },
                    "external_urls": {
                        "spotify": "https://open.spotify.com/track/6DCZcSspjsKoFjzjrWoCdn"
                    },
                    "href": "https://api.spotify.com/v1/tracks/6DCZcSspjsKoFjzjrWoCdn",
                    "id": "6DCZcSspjsKoFjzjrWoCdn",
                    "is_local": false,
                    "name": "God's Plan",
                    "popularity": 84,
                    "preview_url": null,
                    "track_number": 5,
                    "type": "track",
                    "uri": "spotify:track:6DCZcSspjsKoFjzjrWoCdn"
                }
            ],
            "limit": 1,
            "next": "https://api.spotify.com/v1/search?query=God%27s+Plan&type=track&offset=1&limit=1",
            "offset": 0,
            "previous": null,
            "total": 3759
        }
    }
]